%YAML 1.1
%TAG !u! tag:unity3d.com,2011:
--- !u!114 &11400000
MonoBehaviour:
  m_ObjectHideFlags: 0
  m_CorrespondingSourceObject: {fileID: 0}
  m_PrefabInstance: {fileID: 0}
  m_PrefabAsset: {fileID: 0}
  m_GameObject: {fileID: 0}
  m_Enabled: 1
  m_EditorHideFlags: 0
  m_Script: {fileID: 11500000, guid: 26771423cd696ad4f90c498b44a72ec6, type: 3}
  m_Name: Level00Tutorial
  m_EditorClassIdentifier: 
  LevelTitle: Winp-a-thon
  EnemySpeedMod: 1
  LevelNum: 0
  MaxEnemies: 5
  MaxEadibles: 100
  GhostTime: 999
  TutorialLevel: 1
