%YAML 1.1
%TAG !u! tag:unity3d.com,2011:
--- !u!114 &11400000
MonoBehaviour:
  m_ObjectHideFlags: 0
  m_CorrespondingSourceObject: {fileID: 0}
  m_PrefabInstance: {fileID: 0}
  m_PrefabAsset: {fileID: 0}
  m_GameObject: {fileID: 0}
  m_Enabled: 1
  m_EditorHideFlags: 0
  m_Script: {fileID: 11500000, guid: 26771423cd696ad4f90c498b44a72ec6, type: 3}
  m_Name: Level09
  m_EditorClassIdentifier: 
  LevelTitle: Initiation ritual
  EnemySpeedMod: 0.6
  LevelNum: 9
  MaxEnemies: 50
  MaxEadibles: 19
  GhostTime: 20
  TutorialLevel: 0
